{
    "views": [
              {
              "message": "Test view 1",
              "final": false,
              "description": "https://www.drom.ru\n*[Ссылка1](https://www.drom.ru)*\n*italic* or _italic_\n**bold** or __bold__\n\n# Header 1\n## Header 2\n### Header 3\n#### Header 4\n##### Header 5\n###### Header 6\n\n> Quote\n* 1 List\n1. 2 List\n1. 3 List\n1. 4 ListListListListList[Ссылка2](https://www.mail.ru)ListListListListListListListListListListListListListListListListListListListListListListListListListList\n\n`code`\n\n```syntax```[Ссылка3](https://www.vl.ru)",
              "endpoints": [
                            {
                            "label": "Answer 1\nAnswer 1\nAnswer 1\nAnswer 1"
                            },
                            {
                            "label": "Answer 2"
                            }
                            ],
              "actions": [
                          {
                          "id": "not-implemented",
                          "substitution-text": "This feature is just a dump handler of a non implemented function"
                          }
                          ]
              },
              {
              "message": "Test view 2",
              "final": false,
              "description": "#Текст 15 абзацев.\nИдейные соображения высшего порядка, а также начало повседневной работы по формированию позиции способствует подготовки и реализации соответствующий условий активизации. С другой стороны консультация с широким активом представляет собой интересный эксперимент проверки модели развития. Задача организации, в особенности же рамки и место обучения кадров играет важную роль в формировании направлений прогрессивного развития. Задача организации, в особенности же сложившаяся структура организации влечет за собой процесс внедрения и модернизации систем массового участия. Товарищи! постоянное информационно-пропагандистское обеспечение нашей деятельности позволяет оценить значение соответствующий условий активизации. Значимость этих проблем настолько очевидна, что постоянный количественный рост и сфера нашей активности в значительной степени обуславливает создание соответствующий условий активизации.\nЗадача организации, в особенности же дальнейшее развитие различных форм деятельности представляет собой интересный эксперимент проверки направлений прогрессивного развития. Товарищи! постоянный количественный рост и сфера нашей активности требуют определения и уточнения позиций, занимаемых участниками в отношении поставленных задач. Не следует, однако забывать, что постоянный количественный рост и сфера нашей активности в значительной степени обуславливает создание направлений прогрессивного развития. Не следует, однако забывать, что постоянный количественный рост и сфера нашей активности требуют от нас анализа новых предложений.\nТоварищи! рамки и место обучения кадров играет важную роль в формировании системы обучения кадров, соответствует насущным потребностям. С другой стороны сложившаяся структура организации позволяет оценить значение дальнейших направлений развития. Идейные соображения высшего порядка, а также рамки и место обучения кадров способствует подготовки и реализации новых предложений. Разнообразный и богатый опыт рамки и место обучения кадров способствует подготовки и реализации форм развития. Разнообразный и богатый опыт постоянное информационно-пропагандистское обеспечение нашей деятельности представляет собой интересный эксперимент проверки направлений прогрессивного развития.\nРазнообразный и богатый опыт укрепление и развитие структуры позволяет выполнять важные задания по разработке позиций, занимаемых участниками в отношении поставленных задач. Разнообразный и богатый опыт сложившаяся структура организации способствует подготовки и реализации позиций, занимаемых участниками в отношении поставленных задач.\nЗначимость этих проблем настолько очевидна, что постоянное информационно-пропагандистское обеспечение нашей деятельности обеспечивает широкому кругу (специалистов) участие в формировании существенных финансовых и административных условий. Повседневная практика показывает, что сложившаяся структура организации играет важную роль в формировании систем массового участия. Значимость этих проблем настолько очевидна, что начало повседневной работы по формированию позиции представляет собой интересный эксперимент проверки форм развития. Разнообразный и богатый опыт новая модель организационной деятельности в значительной степени обуславливает создание направлений прогрессивного развития.\nНе следует, однако забывать, что укрепление и развитие структуры обеспечивает широкому кругу (специалистов) участие в формировании позиций, занимаемых участниками в отношении поставленных задач. Не следует, однако забывать, что постоянный количественный рост и сфера нашей активности требуют от нас анализа модели развития. Товарищи! постоянное информационно-пропагандистское обеспечение нашей деятельности в значительной степени обуславливает создание форм развития. Значимость этих проблем настолько очевидна, что постоянное информационно-пропагандистское обеспечение нашей деятельности позволяет оценить значение новых предложений. Идейные соображения высшего порядка, а также консультация с широким активом в значительной степени обуславливает создание позиций, занимаемых участниками в отношении поставленных задач. Равным образом рамки и место обучения кадров способствует подготовки и реализации позиций, занимаемых участниками в отношении поставленных задач.\nРавным образом реализация намеченных плановых заданий влечет за собой процесс внедрения и модернизации существенных финансовых и административных условий. Товарищи! укрепление и развитие структуры позволяет выполнять важные задания по разработке соответствующий условий активизации.\nРазнообразный и богатый опыт укрепление и развитие структуры способствует подготовки и реализации направлений прогрессивного развития. Товарищи! реализация намеченных плановых заданий требуют от нас анализа системы обучения кадров, соответствует насущным потребностям. Повседневная практика показывает, что сложившаяся структура организации требуют от нас анализа новых предложений. Повседневная практика показывает, что новая модель организационной деятельности обеспечивает широкому кругу (специалистов) участие в формировании новых предложений. Таким образом консультация с широким активом требуют определения и уточнения систем массового участия.\nРавным образом сложившаяся структура организации влечет за собой процесс внедрения и модернизации направлений прогрессивного развития. Задача организации, в особенности же рамки и место обучения кадров влечет за собой процесс внедрения и модернизации соответствующий условий активизации. С другой стороны укрепление и развитие структуры позволяет выполнять важные задания по разработке дальнейших направлений развития. Повседневная практика показывает, что укрепление и развитие структуры требуют от нас анализа новых предложений. Задача организации, в особенности же новая модель организационной деятельности представляет собой интересный эксперимент проверки дальнейших направлений развития.\nЗадача организации, в особенности же новая модель организационной деятельности влечет за собой процесс внедрения и модернизации существенных финансовых и административных условий. Таким образом начало повседневной работы по формированию позиции влечет за собой процесс внедрения и модернизации модели развития. Таким образом новая модель организационной деятельности позволяет оценить значение системы обучения кадров, соответствует насущным потребностям. Разнообразный и богатый опыт дальнейшее развитие различных форм деятельности влечет за собой процесс внедрения и модернизации позиций, занимаемых участниками в отношении поставленных задач. Разнообразный и богатый опыт реализация намеченных плановых заданий в значительной степени обуславливает создание модели развития.\nРавным образом новая модель организационной деятельности позволяет оценить значение дальнейших направлений развития. Задача организации, в особенности же постоянный количественный рост и сфера нашей активности играет важную роль в формировании направлений прогрессивного развития. Идейные соображения высшего порядка, а также новая модель организационной деятельности требуют от нас анализа направлений прогрессивного развития. Задача организации, в особенности же дальнейшее развитие различных форм деятельности обеспечивает широкому кругу (специалистов) участие в формировании позиций, занимаемых участниками в отношении поставленных задач.\nТоварищи! реализация намеченных плановых заданий способствует подготовки и реализации системы обучения кадров, соответствует насущным потребностям. С другой стороны новая модель организационной деятельности способствует подготовки и реализации системы обучения кадров, соответствует насущным потребностям. Равным образом новая модель организационной деятельности представляет собой интересный эксперимент проверки направлений прогрессивного развития. Значимость этих проблем настолько очевидна, что рамки и место обучения кадров в значительной степени обуславливает создание соответствующий условий активизации. С другой стороны новая модель организационной деятельности в значительной степени обуславливает создание системы обучения кадров, соответствует насущным потребностям.\nРазнообразный и богатый опыт начало повседневной работы по формированию позиции обеспечивает широкому кругу (специалистов) участие в формировании систем массового участия. Задача организации, в особенности же сложившаяся структура организации требуют от нас анализа систем массового участия. Идейные соображения высшего порядка, а также постоянный количественный рост и сфера нашей активности в значительной степени обуславливает создание существенных финансовых и административных условий.",
              "endpoints": [
                            {
                            "label": "Answer 3"
                            }
                            ]
              },
              {
              "message": "Test view 3",
              "final": false,
              "description": "",
              "endpoints": [
                            {
                            "label": "Answer 4"
                            }
                            ]
              },
              {
              "message": "Test view 4",
              "final": true,
              "description": "",
              "endpoints": [
              
              ]
              }
              ],
    "initial": 0,
    "schema": [
               {
               "endpoints": [
                             {
                             "to": 1
                             },
                             {
                             "to": 2
                             }
                             ]
               },
               {
               "endpoints": [
                             {
                             "to": 3
                             }
                             ]
               },
               {
               "endpoints": [
                             {
                             "to": 3
                             }
                             ]
               }
               ]
}

